"키","상호","행정시","행정구","행정동","객실수"
"BE_LiST20-0022","YEHADOYE Guesthouse","Seoul","Jongno-gu","Jongno1.2.3.4ga-dong","7"
"BE_LiST20-0023","B-House","Seoul","Jongno-gu","Changsin2-dong","1"
"BE_LiST20-0024","Hide & Seek","Seoul","Jongno-gu","Sajik-dong","5"
"BE_LiST20-0025","Yein House","Seoul","Jongno-gu","Cheongunhyoja-dong","8"
"BE_LiST20-0026","Seoul Guesthouse","Seoul","Jongno-gu","Jongno1.2.3.4ga-dong","4"
"BE_LiST20-0027","Windroad & Flower Guesthouse","Seoul","Jongno-gu","Hyehwa-dong","1"
"BE_LiST20-0028","White Rabbit Guesthouse","Seoul","Jongno-gu","Hyehwa-dong","3"
"BE_LiST20-0029","Bong Backpackers","Seoul","Jongno-gu","Hyehwa-dong","5"
"BE_LiST20-0030","The Present Guesthouse","Seoul","Jongno-gu","Hyehwa-dong","3"
"BE_LiST20-0031","Lydia Craft Guesthouse","Seoul","Jongno-gu","Sajik-dong","2"
"BE_LiST20-0032","BBUNGALOW","Seoul","Jongno-gu","Sajik-dong","1"
"BE_LiST20-0033","Gwanghwamun Guest House Gung","Seoul","Jongno-gu","Sajik-dong","5"
"BE_LiST20-0034","OWL Guesthouse","Seoul","Jongno-gu","Sungin2-dong","1"
"BE_LiST20-0035","Pom House","Seoul","Jongno-gu","Sajik-dong","3"
"BE_LiST20-0036","J House","Seoul","Jongno-gu","Sajik-dong","2"
"BE_LiST20-0037","Woo Guesthouse","Seoul","Jongno-gu","Samcheong-dong","2"
"BE_LiST20-0038","CHANG YEUN HO","Seoul","Jongno-gu","Cheongunhyoja-dong","2"
"BE_LiST20-0039","Eighty Eight Guest House","Seoul","Jongno-gu","Samcheong-dong","5"
"BE_LiST20-0040","Guesthouse The Kims","Seoul","Jongno-gu","Buam-dong","2"
"BE_LiST20-0041","Guest J House","Seoul","Jongno-gu","Hyehwa-dong","6"
"BE_LiST20-0042","Hans House","Seoul","Jongno-gu","Sajik-dong","3"
"BE_LiST20-0043","Friend in Seoul","Seoul","Jongno-gu","Cheongunhyoja-dong","1"
"BE_LiST20-0044","A Well Watered Garden","Seoul","Jongno-gu","Pyeongchang-dong","4"
"BE_LiST20-0045","Namdaemun Guest House","Seoul","Jung-gu","Hoehyeon-dong","8"
"BE_LiST20-0046","Residence EO","Seoul","Jung-gu","Myeong-dong","4"
"BE_LiST20-0047","Eco House","Seoul","Jung-gu","Myeong-dong","1"
"BE_LiST20-0048","Myeongdong Green Guesthouse","Seoul","Jung-gu","Hoehyeon-dong","4"
"BE_LiST20-0049","Bangrang Hostel","Seoul","Jung-gu","Jungnim-dong","13"
"BE_LiST20-0050","Homestay Mama House","Seoul","Jung-gu","Gwanghui-dong","3"
"BE_LiST20-0051","Kukje Guesthouse","Seoul","Jung-gu","Hoehyeon-dong","7"
"BE_LiST20-0052","N Four Season Seoul","Seoul","Jung-gu","Hoehyeon-dong","3"
"BE_LiST20-0053","B my guesthouse","Seoul","Jung-gu","Hoehyeon-dong","9"
"BE_LiST20-0054","Gom Guesthouse","Seoul","Jung-gu","Pil-dong","3"
"BE_LiST20-0055","OK Vill","Seoul","Jung-gu","Euljiro-dong","1"
"BE_LiST20-0056","Agit Guesthouse","Seoul","Jung-gu","Yaksu-dong","7"
"BE_LiST20-0057","I House","Seoul","Jung-gu","Hoehyeon-dong","4"
"BE_LiST20-0058","MAGO Guesthouse","Seoul","Jung-gu","Pil-dong","3"
"BE_LiST20-0059","The Boot Main","Seoul","Jung-gu","Pil-dong","3"
"BE_LiST20-0060","The Boot Sub","Seoul","Jung-gu","Pil-dong","3"
"BE_LiST20-0061","Grandfield Guesthouse","Seoul","Jung-gu","Myeong-dong","6"
"BE_LiST20-0062","J-Honor Guesthouse","Seoul","Jung-gu","Hoehyeon-dong","2"
"BE_LiST20-0063","Mama Guesthouse 1","Seoul","Jung-gu","Pil-dong","10"
"BE_LiST20-0064","Korea's Come","Seoul","Jung-gu","Sindang5-dong","3"
"BE_LiST20-0065","Neungmaru Guesthouse","Seoul","Jung-gu","Myeong-dong","10"
"BE_LiST20-0066","Tao Town","Seoul","Jung-gu","Jangchung-dong","17"
"BE_LiST20-0067","Guesthouse Myeongdong 2","Seoul","Jung-gu","Pil-dong","3"
"BE_LiST20-0068","Lee's Garden","Seoul","Jung-gu","Myeong-dong","7"
"BE_LiST20-0069","City House","Seoul","Jung-gu","Jungnim-dong","2"
"BE_LiST20-0070","Welcome Guesthouse","Seoul","Jung-gu","Hoehyeon-dong","3"
"BE_LiST20-0071","Starria Hostel","Seoul","Jung-gu","Myeong-dong","4"
"BE_LiST20-0072","Kiki Guesthouse","Seoul","Jung-gu","Gwanghui-dong","2"
"BE_LiST20-0073","Able Guesthouse","Seoul","Jung-gu","Gwanghui-dong","7"
"BE_LiST20-0074","Vestin Villa","Seoul","Jung-gu","Myeong-dong","1"
"BE_LiST20-0075","Agrina","Seoul","Jung-gu","Pil-dong","6"
"BE_LiST20-0076","Soo Guesthouse","Seoul","Jung-gu","Myeong-dong","7"
"BE_LiST20-0077","Crib49 Guesthouse","Seoul","Jung-gu","Myeong-dong","6"
"BE_LiST20-0078","The Hill","Seoul","Jung-gu","Myeong-dong","7"
"BE_LiST20-0079","IU Guesthouse","Seoul","Jung-gu","Hoehyeon-dong","3"
"BE_LiST20-0080","YL Guesthouse","Seoul","Jung-gu","Hoehyeon-dong","3"
"BE_LiST20-0081","USB Guesthouse","Seoul","Jung-gu","Jangchung-dong","9"
"BE_LiST20-0082","Rainbow Guesthouse","Seoul","Jung-gu","Pil-dong","1"
"BE_LiST20-0083","Wons Ville","Seoul","Jung-gu","Pil-dong","5"
"BE_LiST20-0084","Red","Seoul","Jung-gu","Myeong-dong","6"
"BE_LiST20-0085","Seoul Station Liga Homestay","Seoul","Jung-gu","Jungnim-dong","1"
"BE_LiST20-0086","24 Guesthouse Namsangarden","Seoul","Jung-gu","Myeong-dong","5"
"BE_LiST20-0087","Namsan Guesthouse 5","Seoul","Jung-gu","Myeong-dong","3"
"BE_LiST20-0088","Nancy Guesthouse","Seoul","Jung-gu","Myeong-dong","5"
"BE_LiST20-0089","Bodeum","Seoul","Jung-gu","Hoehyeon-dong","5"
"BE_LiST20-0090","Zoayo","Seoul","Jung-gu","Myeong-dong","2"
"BE_LiST20-0091","Lucas Guesthouse","Seoul","Jung-gu","Myeong-dong","2"
"BE_LiST20-0092","The Mei Forestvill","Seoul","Jung-gu","Jangchung-dong","6"
"BE_LiST20-0093","ZZ Guesthouse","Seoul","Jung-gu","Myeong-dong","8"
"BE_LiST20-0094","Mom House (Myeongdong Mom House)","Seoul","Jung-gu","Myeong-dong","6"
"BE_LiST20-0095","Seoul Taiwan Guesthouse","Seoul","Jung-gu","Hoehyeon-dong","7"
"BE_LiST20-0096","Plan A Hostel","Seoul","Jung-gu","Sindang-dong","7"
"BE_LiST20-0097","Rainbow Guesthouse","Seoul","Jung-gu","Pil-dong","2"
"BE_LiST20-0098","Tomato Guesthouse","Seoul","Jung-gu","Myeong-dong","8"
"BE_LiST20-0099","Cozy Stay","Seoul","Jung-gu","Hwanghak-dong","2"
"BE_LiST20-0100","Jun Guesthouse","Seoul","Jung-gu","Myeong-dong","7"
"BE_LiST20-0101","Ami Guesthouse","Seoul","Jung-gu","Hwanghak-dong","4"
"BE_LiST20-0102","Guesthouse Dodam","Seoul","Jung-gu","Hoehyeon-dong","7"
"BE_LiST20-0103","88 Guesthouse","Seoul","Jung-gu","Hoehyeon-dong","7"
"BE_LiST20-0104","Dream House 1","Seoul","Jung-gu","Hoehyeon-dong","2"
"BE_LiST20-0105","Dream House 2","Seoul","Jung-gu","Hoehyeon-dong","2"
"BE_LiST20-0106","Dream House 3","Seoul","Jung-gu","Hoehyeon-dong","2"
"BE_LiST20-0107","First House","Seoul","Jung-gu","Gwanghui-dong","3"
"BE_LiST20-0108","Yun Guesthouse","Seoul","Jung-gu","Myeong-dong","7"
"BE_LiST20-0109","Namdaemun Guesthouse 2","Seoul","Jung-gu","Hoehyeon-dong","4"
"BE_LiST20-0110","Oju Guesthouse","Seoul","Jung-gu","Dasan-dong","1"
"BE_LiST20-0111","J Honor II","Seoul","Jung-gu","Hoehyeon-dong","2"
"BE_LiST20-0112","J Honor III","Seoul","Jung-gu","Hoehyeon-dong","2"
"BE_LiST20-0113","Mama Guesthouse","Seoul","Jung-gu","Pil-dong","3"
"BE_LiST20-0114","Koni House","Seoul","Jung-gu","Gwanghui-dong","10"
"BE_LiST20-0115","J-Story Guesthouse","Seoul","Jung-gu","Jungnim-dong","8"
"BE_LiST20-0116","PARADISE Guesthouse","Seoul","Jung-gu","Jangchung-dong","1"
"BE_LiST20-0117","Dreamers Guesthouse","Seoul","Jung-gu","Pil-dong","5"
"BE_LiST20-0118","Eve's Guesthouse","Seoul","Jung-gu","Myeong-dong","1"
"BE_LiST20-0119","Guesthouse The Hill 2","Seoul","Jung-gu","Pil-dong","7"
"BE_LiST20-0120","Chungjeongno Samseong Homestay","Seoul","Jung-gu","Jungnim-dong","2"
"BE_LiST20-0121","Agnes Inn","Seoul","Yongsan-gu","Itaewon2-dong","7"
"BE_LiST20-0122","Robin's Nest ","Seoul","Yongsan-gu","Hannam-dong","3"
"BE_LiST20-0123","Hangang View","Seoul","Yongsan-gu","Hangangno-dong","2"
"BE_LiST20-0124","Deoksugung House","Seoul","Yongsan-gu","Wonhyoro1-dong","4"
"BE_LiST20-0125","Itaewon Backpackers","Seoul","Yongsan-gu","Hannam-dong","6"
"BE_LiST20-0126","Sion Guesthouse","Seoul","Yongsan-gu","Hannam-dong","4"
"BE_LiST20-0127","SP@Itaewon","Seoul","Yongsan-gu","Itaewon1-dong","7"
"BE_LiST20-0128","Guest house Itawon hills","Seoul","Yongsan-gu","Seobinggo-dong","3"
"BE_LiST20-0129","Seoul Peter's Guesthouse","Seoul","Yongsan-gu","Hannam-dong","3"
"BE_LiST20-0235","Junny's House","Seoul","Gangbuk-gu","Samyang-dong","2"
"BE_LiST20-0511","Seoul 910","Seoul","Yangcheon-gu","Mok2-dong","1"
"BE_LiST20-0512","Ggumeul Iruneun Jip ","Seoul","Yangcheon-gu","Sinwol4-dong","1"
"BE_LiST20-0513","Sweet Home","Seoul","Yangcheon-gu","Sinjeong6-dong","1"
"BE_LiST20-0514","Jin's Art House","Seoul","Yangcheon-gu","Sinjeong7-dong","1"
"BE_LiST20-0515","Doubler","Seoul","Yangcheon-gu","Sinjeong2-dong","1"
"BE_LiST20-0516","The Grace","Seoul","Yangcheon-gu","Sinjeong3-dong","1"
"BE_LiST20-0517","Miso","Seoul","Yangcheon-gu","Mok1-dong","1"
"BE_LiST20-0518","Rodem House","Seoul","Gangseo-gu","Hwagok3-dong","2"
"BE_LiST20-0519","Aarya House","Seoul","Gangseo-gu","Banghwa1-dong","2"
"BE_LiST20-0520","Dasom House","Seoul","Gangseo-gu","Deungchon3-dong","1"
"BE_LiST20-0521","Homestay in Seoul","Seoul","Gangseo-gu","Deungchon3-dong","2"
"BE_LiST20-0522","Happy House","Seoul","Gangseo-gu","Deungchon1-dong","1"
"BE_LiST20-0523","Song House","Seoul","Gangseo-gu","Ujangsan-dong","1"
"BE_LiST20-0524","Mom House","Seoul","Gangseo-gu","Ujangsan-dong","1"
"BE_LiST20-0525","Sharon ","Seoul","Gangseo-gu","Deungchon1-dong","1"
"BE_LiST20-0526","Papa Stay","Seoul","Gangseo-gu","Gayang1-dong","2"
"BE_LiST20-0527","Hanabi House","Seoul","Gangseo-gu","Gayang1-dong","1"
"BE_LiST20-0528","The Simple House","Seoul","Gangseo-gu","Gonghang-dong","3"
"BE_LiST20-0529","JC House","Seoul","Gangseo-gu","Banghwa2-dong","1"
"BE_LiST20-0530","Suga","Seoul","Gangseo-gu","Ujangsan-dong","2"
"BE_LiST20-0531","Lee Sisters' Guesthouse","Seoul","Gangseo-gu","Hwagokbon-dong","2"
"BE_LiST20-0532","The Naru B&B","Seoul","Gangseo-gu","Gonghang-dong","2"
"BE_LiST20-0533","The Seoul House","Seoul","Guro-gu","Gaebong2-dong","1"
"BE_LiST20-0534","J's Happy House","Seoul","Guro-gu","Gocheok2-dong","2"
"BE_LiST20-0535","Myeongji Home","Seoul","Geumcheon-gu","Doksan1-dong","3"
"BE_LiST20-0536","G Valley House","Seoul","Geumcheon-gu","Doksan1-dong","3"
"BE_LiST20-0537","Daiyo Homestay","Seoul","Yeongdeungpo-gu","Yeoui-dong","1"
"BE_LiST20-0538","kelly homestay","Seoul","Yeongdeungpo-gu","Yeongdeungpo-dong","1"
"BE_LiST20-0539","Seoul Minbak","Seoul","Yeongdeungpo-gu","Yeoui-dong","2"
"BE_LiST20-0540","Bona ","Seoul","Yeongdeungpo-gu","Singil1-dong","2"
"BE_LiST20-0541","Lodge 82","Seoul","Yeongdeungpo-gu","Singil1-dong","3"
"BE_LiST20-0542","Sky Guesthouse","Seoul","Yeongdeungpo-gu","Yeongdeungpobon-dong","5"
"BE_LiST20-0543","SWEET HOME","Seoul","Yeongdeungpo-gu","Dangsan2-dong","2"
"BE_LiST20-0544","Boramae 5n6","Seoul","Yeongdeungpo-gu","Singil6-dong","1"
"BE_LiST20-0545","Mira's ","Seoul","Yeongdeungpo-gu","Dangsan2-dong","1"
"BE_LiST20-0546","Hyeonjun Guesthouse","Seoul","Yeongdeungpo-gu","Yeongdeungpo-dong","1"
"BE_LiST20-0547","Urban Art Guesthouse","Seoul","Yeongdeungpo-gu","Mullae-dong","3"
"BE_LiST20-0548","Happy House Homestay","Seoul","Dongjak-gu","Sangdo2-dong","3"
"BE_LiST20-0549","Soony Homestay","Seoul","Dongjak-gu","Sangdo1-dong","1"
"BE_LiST20-0550","HAO HAO","Seoul","Dongjak-gu","Sadang2-dong","2"
"BE_LiST20-0551","e-World","Seoul","Dongjak-gu","Daebang-dong","1"
"BE_LiST20-0552","Grina house","Seoul","Dongjak-gu","Sadang3-dong","2"
"BE_LiST20-0553","Peace On House","Seoul","Dongjak-gu","Noryangjin1-dong","2"
"BE_LiST20-0554","Ordinary People","Seoul","Dongjak-gu","Sadang1-dong","1"
"BE_LiST20-0555","Sadang Mom's House","Seoul","Dongjak-gu","Sadang1-dong","2"
"BE_LiST20-0556","KYUNG RIM","Seoul","Dongjak-gu","Daebang-dong","2"
"BE_LiST20-0557","Kim's Family House","Seoul","Dongjak-gu","Sadang2-dong","1"
"BE_LiST20-0558","Seoul Gil Guesthouse","Seoul","Dongjak-gu","Sangdo1-dong","2"
"BE_LiST20-0559","Aret House","Seoul","Dongjak-gu","Noryangjin1-dong","2"
"BE_LiST20-0560","Okay Guesthouse","Seoul","Dongjak-gu","Daebang-dong","4"
"BE_LiST20-0561","Seoul Works","Seoul","Dongjak-gu","Sangdo2-dong","3"
"BE_LiST20-0562","Korea Guesthouse","Seoul","Gwanak-gu","Euncheon-dong","1"
"BE_LiST20-0563","Grace Vill","Seoul","Gwanak-gu","Namhyeon-dong","1"
"BE_LiST20-0564","Assibang","Seoul","Gwanak-gu","Namhyeon-dong","1"
"BE_LiST20-0565","Sillim Vill","Seoul","Gwanak-gu","Sinsa-dong","1"
"BE_LiST20-0566","MD","Seoul","Gwanak-gu","Euncheon-dong","1"
"BE_LiST20-0567","Cozy Lodge","Seoul","Gwanak-gu","Seonghyeon-dong","2"
"BE_LiST20-0568","Alice Homestay","Seoul","Gwanak-gu","Seonghyeon-dong","2"
"BE_LiST20-0569","Eondeokwiui Jip (Hill House)","Seoul","Gwanak-gu","Sinwon-dong","1"
"BE_LiST20-0570","Kay's house","Seoul","Gwanak-gu","Cheongnyong-dong","1"
"BE_LiST20-0571","Seoulist","Seoul","Gwanak-gu","Namhyeon-dong","2"
"BE_LiST20-0572","Warm House","Seoul","Gwanak-gu","Seonghyeon-dong","4"
"BE_LiST20-0573","Goodday Guesthouse","Seoul","Gwanak-gu","Nanhyang-dong","1"
"BE_LiST20-0574","Ynny House","Seoul","Gwanak-gu","Seonghyeon-dong","1"
"BE_LiST20-0575","Jiho House","Seoul","Gwanak-gu","Samseong-dong","1"
"BE_LiST20-0576","Carol's Home","Seoul","Gwanak-gu","Seonghyeon-dong","1"
"BE_LiST20-0577","Kim n Jeong's house","Seoul","Gwanak-gu","Samseong-dong",""
"BE_LiST20-0578","Tanya's house","Seoul","Gwanak-gu","Haengun-dong",""
"BE_LiST20-0579","Green forest village","Seoul","Gwanak-gu","Namhyeon-dong",""
"BE_LiST20-0580","Hyundai Guesthouse","Seoul","Gwanak-gu","Daehak-dong",""
"BE_LiST20-0581","Top guest house","Seoul","Gwanak-gu","Seowon-dong",""
"BE_LiST20-0582","Song's BNB","Seoul","Seocho-gu","Seocho3-dong","2"
"BE_LiST20-0583","SeoulStay","Seoul","Seocho-gu","Seocho3-dong","2"
"BE_LiST20-0584","JOY HOME","Seoul","Seocho-gu","Seocho4-dong","2"
"BE_LiST20-0585","Royal Homestay","Seoul","Seocho-gu","Bangbae3-dong","2"
"BE_LiST20-0586","KOREA SEOUL","Seoul","Seocho-gu","Bangbae3-dong","2"
"BE_LiST20-0587","Geumgye","Seoul","Seocho-gu","Yangjae2-dong","4"
"BE_LiST20-0588","The JA in Gangnam","Seoul","Seocho-gu","Seocho4-dong","2"
"BE_LiST20-0589","Sueun's House","Seoul","Seocho-gu","Banpo3-dong","2"
"BE_LiST20-0590","PINE TREE Homestay","Seoul","Seocho-gu","Banpo1-dong","2"
"BE_LiST20-0591","Gyodae Guesthouse","Seoul","Seocho-gu","Seocho1-dong","2"
"BE_LiST20-0592","Gangnam Station Guesthouse SJ","Seoul","Seocho-gu","Seocho2-dong","3"
"BE_LiST20-0593","COREA","Seoul","Seocho-gu","Seocho3-dong","2"
"BE_LiST20-0594","Happy Gangnam","Seoul","Seocho-gu","Seocho4-dong","2"
"BE_LiST20-0595","Seocho Green Happy House","Seoul","Seocho-gu","Bangbae1-dong","3"
"BE_LiST20-0596","Owl's Nest Guesthouse","Seoul","Seocho-gu","Banpo1-dong","3"
"BE_LiST20-0597","KW Sinsa","Seoul","Seocho-gu","Jamwon-dong","1"
"BE_LiST20-0598","Oneul Guesthouse","Seoul","Seocho-gu","Yangjae1-dong","3"
"BE_LiST20-0599","Home to Home Sinsa","Seoul","Seocho-gu","Jamwon-dong","2"
"BE_LiST20-0600","Hope Homestay","Seoul","Seocho-gu","Banpo4-dong","2"
"BE_LiST20-0601","Sophia House","Seoul","Seocho-gu","Yangjae1-dong","2"
"BE_LiST20-0602","J House","Seoul","Seocho-gu","Yangjae1-dong","1"
"BE_LiST20-0603","Sinsa Residence Guesthouse","Seoul","Seocho-gu","Jamwon-dong","3"
"BE_LiST20-0604","Lena House","Seoul","Seocho-gu","Banpo1-dong","1"
"BE_LiST20-0605","Choice","Seoul","Seocho-gu","Seocho3-dong","1"
"BE_LiST20-0606","Rodem","Seoul","Seocho-gu","Bangbae3-dong","2"
"BE_LiST20-0607","Apgujeong Guesthouse","Seoul","Gangnam-gu","Apgujeong-dong","2"
"BE_LiST20-0608","Minseong Guesthouse","Seoul","Gangnam-gu","Daechi4-dong","2"
"BE_LiST20-0609","An Guesthouse","Seoul","Gangnam-gu","Apgujeong-dong","5"
"BE_LiST20-0610","Guesthouse The Jip","Seoul","Gangnam-gu","Sinsa-dong","5"
"BE_LiST20-0611","Guesthouse Gangnam","Seoul","Gangnam-gu","Apgujeong-dong","4"
"BE_LiST20-0612","Guesthouse K","Seoul","Gangnam-gu","Yeoksam1-dong","8"
"BE_LiST20-0613","The JA Garosu","Seoul","Gangnam-gu","Sinsa-dong","4"
"BE_LiST20-0614","Radler Guesthouse","Seoul","Gangnam-gu","Nonhyeon1-dong","1"
"BE_LiST20-0615","24 Guesthouse Gangnam","Seoul","Gangnam-gu","Yeoksam1-dong","8"
"BE_LiST20-0616","Hangang ","Seoul","Gangnam-gu","Cheongdam-dong","1"
"BE_LiST20-0236","Tomato Guesthouse","Seoul","Gangbuk-gu","Suyu2-dong","1"
"BE_LiST20-0237","O House","Seoul","Gangbuk-gu","Songjung-dong","1"
"BE_LiST20-0238","Green Homestay","Seoul","Dobong-gu","Chang5-dong","1"
"BE_LiST20-0239","Dobong Homestay","Seoul","Dobong-gu","Dobong2-dong","2"
"BE_LiST20-0240","Happy Binny House","Seoul","Dobong-gu","Chang5-dong","1"
"BE_LiST20-0241","Dobong House","Seoul","Dobong-gu","Ssangmun4-dong","2"
"BE_LiST20-0242","Jeulgeoun Jip","Seoul","Dobong-gu","Chang5-dong","3"
"BE_LiST20-0243","Dooly Guesthouse","Seoul","Dobong-gu","Ssangmun3-dong","2"
"BE_LiST20-0244","DREM HOUSE","Seoul","Nowon-gu","Junggye2.3-dong","1"
"BE_LiST20-0245","The Healing Homestay","Seoul","Nowon-gu","Junggye4-dong","1"
"BE_LiST20-0246","Smile Homestay","Seoul","Nowon-gu","Junggye2.3-dong","1"
"BE_LiST20-0247","sun flower","Seoul","Nowon-gu","Sanggye2-dong","1"
"BE_LiST20-0248","COSMOS HOUSE","Seoul","Nowon-gu","Gongneung2-dong","1"
"BE_LiST20-0249","Hangukinui Jip","Seoul","Eunpyeong-gu","Bulgwang2-dong","2"
"BE_LiST20-0250","Hitomi","Seoul","Eunpyeong-gu","Galhyeon2-dong","2"
"BE_LiST20-0251","Happy House","Seoul","Eunpyeong-gu","Jingwan-dong","1"
"BE_LiST20-0252","Aimom","Seoul","Eunpyeong-gu","Galhyeon1-dong","3"
"BE_LiST20-0253","Momojumma House","Seoul","Eunpyeong-gu","Jingwan-dong","1"
"BE_LiST20-0254","Paradise","Seoul","Eunpyeong-gu","Jingwan-dong","2"
"BE_LiST20-0255","Gamnamu Jip ","Seoul","Eunpyeong-gu","Sinsa2-dong","4"
"BE_LiST20-0256","Jaeo House","Seoul","Eunpyeong-gu","Jeungsan-dong","4"
"BE_LiST20-0257","Hangari House ","Seoul","Eunpyeong-gu","Eungam1-dong","2"
"BE_LiST20-0258","Emma's House","Seoul","Eunpyeong-gu","Daejo-dong","4"
"BE_LiST20-0259","Jenny's House","Seoul","Eunpyeong-gu","Eungam3-dong","1"
"BE_LiST20-0260","Smile Homestay","Seoul","Eunpyeong-gu","Jingwan-dong","1"
"BE_LiST20-0261","Hanjin","Seoul","Eunpyeong-gu","Jingwan-dong","2"
"BE_LiST20-0262","Bukhansan Yellow Guesthouse","Seoul","Eunpyeong-gu","Bulgwang1-dong","2"
"BE_LiST20-0263","Seoul Homestay","Seoul","Eunpyeong-gu","Gusan-dong","2"
"BE_LiST20-0264","Global Home","Seoul","Eunpyeong-gu","Jingwan-dong","1"
"BE_LiST20-0265","JS House 2","Seoul","Eunpyeong-gu","Sinsa1-dong","2"
"BE_LiST20-0266","JS House 1","Seoul","Eunpyeong-gu","Sinsa1-dong","2"
"BE_LiST20-0267","Beautiful Hwangto Traditional House","Seoul","Eunpyeong-gu","Bulgwang2-dong","2"
"BE_LiST20-0268","City Guest House","Seoul","Seodaemun-gu","Yeonhui-dong","5"
"BE_LiST20-0269","Smile Stay","Seoul","Seodaemun-gu","Yeonhui-dong","2"
"BE_LiST20-0270","Pilgrim","Seoul","Seodaemun-gu","Bukgajwa2-dong","2"
"BE_LiST20-0271","Helen's place","Seoul","Seodaemun-gu","Bukgajwa2-dong","2"
"BE_LiST20-0272","24 Guesthouse","Seoul","Seodaemun-gu","Sinchon-dong","5"
"BE_LiST20-0273","JK Guesthouse","Seoul","Seodaemun-gu","Hongeun1-dong","4"
"BE_LiST20-0274","J Guesthouse","Seoul","Seodaemun-gu","Sinchon-dong","5"
"BE_LiST20-0275","ICOS Guesthouse","Seoul","Seodaemun-gu","Sinchon-dong","5"
"BE_LiST20-0276","Leader Guesthouse","Seoul","Seodaemun-gu","Chunghyeon-dong","3"
"BE_LiST20-0277","Lemontea Guesthouse","Seoul","Seodaemun-gu","Chunghyeon-dong",""
"BE_LiST20-0278","Seoul Station Guesthouse","Seoul","Seodaemun-gu","Chunghyeon-dong",""
"BE_LiST20-0279","My Home In Seoul","Seoul","Seodaemun-gu","Hongje1-dong",""
"BE_LiST20-0280","YE'4 Guesthouse","Seoul","Seodaemun-gu","Yeonhui-dong","1"
"BE_LiST20-0281","YUNI HAUS","Seoul","Seodaemun-gu","Yeonhui-dong","1"
"BE_LiST20-0282","Cozybox Guesthouse","Seoul","Seodaemun-gu","Sinchon-dong",""
"BE_LiST20-0283","JJ Guesthouse","Seoul","Seodaemun-gu","Bukgajwa1-dong","1"
"BE_LiST20-0284","Dream Guesthouse","Seoul","Seodaemun-gu","Yeonhui-dong",""
"BE_LiST20-0285","Yuan Guesthouse","Seoul","Seodaemun-gu","Yeonhui-dong",""
"BE_LiST20-0286","YaKorea Hostel ","Seoul","Seodaemun-gu","Sinchon-dong",""
"BE_LiST20-0287","Seoul Station Guesthouse-4 ","Seoul","Seodaemun-gu","Chunghyeon-dong",""
"BE_LiST20-0288","Seoul Station Guesthouse-3","Seoul","Seodaemun-gu","Chunghyeon-dong",""
"BE_LiST20-0289","Seoul Station Guesthouse-1","Seoul","Seodaemun-gu","Chunghyeon-dong",""
"BE_LiST20-0290","Seoul Station Guesthouse-2","Seoul","Seodaemun-gu","Chunghyeon-dong",""
"BE_LiST20-0291","Philstay Ehwa Boutique","Seoul","Seodaemun-gu","Sinchon-dong",""
"BE_LiST20-0292","Shinchon Guesthouse","Seoul","Seodaemun-gu","Sinchon-dong",""
"BE_LiST20-0293","The Mei Haus","Seoul","Seodaemun-gu","Yeonhui-dong",""
"BE_LiST20-0294","Time Travelers Party Hostel","Seoul","Seodaemun-gu","Sinchon-dong",""
"BE_LiST20-0295","Come Inn Guesthouse","Seoul","Mapo-gu","Seogyo-dong","5"
"BE_LiST20-0296","NEO SEOUL","Seoul","Mapo-gu","Seogyo-dong","4"
"BE_LiST20-0297","Family and Friends House","Seoul","Mapo-gu","Yeonnam-dong","8"
"BE_LiST20-0298","Kimchi Hongdae Hostel","Seoul","Mapo-gu","Yeonnam-dong","8"
"BE_LiST20-0299","Stay Korea","Seoul","Mapo-gu","Yeonnam-dong","7"
"BE_LiST20-0300","Hi Guesthouse","Seoul","Mapo-gu","Seogyo-dong","9"
"BE_LiST20-0301","Four Seasons House","Seoul","Mapo-gu","Seogyo-dong","7"
"BE_LiST20-0302","SPACE TORRA","Seoul","Mapo-gu","Yeonnam-dong","6"
"BE_LiST20-0303","Birdsnest ","Seoul","Mapo-gu","Yeonnam-dong","5"
"BE_LiST20-0304","Le Sol","Seoul","Mapo-gu","Seogyo-dong","5"
"BE_LiST20-0305","Hello Korea Guesthouse","Seoul","Mapo-gu","Yeonnam-dong","4"
"BE_LiST20-0306","Oasis Guesthouse","Seoul","Mapo-gu","Seogyo-dong","7"
"BE_LiST20-0307","JJ Guesthouse","Seoul","Mapo-gu","Seogyo-dong","9"
"BE_LiST20-0308","ICOS","Seoul","Mapo-gu","Daheung-dong","4"
"BE_LiST20-0309","Whitetail?","Seoul","Mapo-gu","Yeonnam-dong","5"
"BE_LiST20-0310","Studio41st Hostel","Seoul","Mapo-gu","Yeonnam-dong","7"
"BE_LiST20-0311","Namu","Seoul","Mapo-gu","Yeonnam-dong","3"
"BE_LiST20-0312","For You","Seoul","Mapo-gu","Seongsan2-dong","2"
"BE_LiST20-0313","Family Housetel","Seoul","Mapo-gu","Seogyo-dong","8"
"BE_LiST20-0314","OMG guesthouse","Seoul","Mapo-gu","Seogyo-dong","4"
"BE_LiST20-0315","Sodam Guesthouse","Seoul","Mapo-gu","Daheung-dong","2"
"BE_LiST20-0316","Guesthouse KW hongdae","Seoul","Mapo-gu","Yeonnam-dong","1"
"BE_LiST20-0317","Dustin Guest House","Seoul","Mapo-gu","Seogyo-dong","5"
"BE_LiST20-0318","Duri World House","Seoul","Mapo-gu","Yeonnam-dong","5"
"BE_LiST20-0319","Cozzzy Guest House","Seoul","Mapo-gu","Yeonnam-dong","5"
"BE_LiST20-0320","Seoulwise Guesthouse","Seoul","Mapo-gu","Seogyo-dong","8"
"BE_LiST20-0321","Yellow Submarine","Seoul","Mapo-gu","Yeonnam-dong","5"
"BE_LiST20-0322","Maruji Guesthouse","Seoul","Mapo-gu","Yeonnam-dong","6"
"BE_LiST20-0323","roi house","Seoul","Mapo-gu","Yeonnam-dong","9"
"BE_LiST20-0324","SUTOME","Seoul","Mapo-gu","Mangwon2-dong","6"
"BE_LiST20-0325","Issue Seoul","Seoul","Mapo-gu","Seogyo-dong","6"
"BE_LiST20-0326","Apple Guesthouse","Seoul","Mapo-gu","Yeonnam-dong","10"
"BE_LiST20-0327","KPOPSTAY","Seoul","Mapo-gu","Seogang-dong","4"
"BE_LiST20-0328","KPOPSTAY II","Seoul","Mapo-gu","Seogang-dong","3"
"BE_LiST20-0329","Funfun stay","Seoul","Mapo-gu","Seogyo-dong","4"
"BE_LiST20-0330","Hongdae Family Housetel 2","Seoul","Mapo-gu","Yeonnam-dong","2"
"BE_LiST20-0331","Mr. Comma Guesthouse?","Seoul","Mapo-gu","Yeonnam-dong","3"
"BE_LiST20-0332","Hey Backpackers 2?","Seoul","Mapo-gu","Seogyo-dong","3"
"BE_LiST20-0333","Wowhills guesthouse","Seoul","Mapo-gu","Seogang-dong","7"
"BE_LiST20-0334","Inn Guest House","Seoul","Mapo-gu","Seongsan1-dong","4"
"BE_LiST20-0335","Mango Guesthouse","Seoul","Mapo-gu","Seogyo-dong","4"
"BE_LiST20-0336","Crossroad Backpackers","Seoul","Mapo-gu","Seogyo-dong","8"
"BE_LiST20-0337","Fortune","Seoul","Mapo-gu","Seogyo-dong","12"
"BE_LiST20-0338","Dream House","Seoul","Mapo-gu","Seogyo-dong","6"
"BE_LiST20-0339","Alpha Guest House","Seoul","Mapo-gu","Daheung-dong","2"
"BE_LiST20-0509","Maison de Kim","Seoul","Yangcheon-gu","Mok3-dong","1"
"BE_LiST20-0510","O.K. House","Seoul","Yangcheon-gu","Mok1-dong","1"
"BE_LiST20-0130","Gosari Homestay","Seoul","Yongsan-gu","Wonhyoro2-dong","2"
"BE_LiST20-0131","Tuyosinoie","Seoul","Yongsan-gu","Huam-dong","3"
"BE_LiST20-0132","Aoi Sora","Seoul","Yongsan-gu","Ichon1-dong","2"
"BE_LiST20-0133","Martin B&B","Seoul","Yongsan-gu","Cheongpa-dong","4"
"BE_LiST20-0134","Ryan Guesthouse","Seoul","Yongsan-gu","Ichon2-dong","2"
"BE_LiST20-0135","Xeromine Guesthouse","Seoul","Yongsan-gu","Itaewon1-dong","4"
"BE_LiST20-0136","Han River View House","Seoul","Yongsan-gu","Ichon1-dong","3"
"BE_LiST20-0137","Pine Tree Guesthouse","Seoul","Yongsan-gu","Hangangno-dong","5"
"BE_LiST20-0138","Jin's Paradise ","Seoul","Yongsan-gu","Itaewon1-dong","3"
"BE_LiST20-0139","HA;US","Seoul","Yongsan-gu","Hannam-dong","2"
"BE_LiST20-0140","UN Guesthouse","Seoul","Yongsan-gu","Hannam-dong","2"
"BE_LiST20-0141","Bini Guesthouse","Seoul","Yongsan-gu","Hannam-dong","2"
"BE_LiST20-0142","Pop@Itaewon Guesthouse","Seoul","Yongsan-gu","Itaewon1-dong","6"
"BE_LiST20-0143","Seoul Pencil ","Seoul","Yongsan-gu","Cheongpa-dong","9"
"BE_LiST20-0144","Itaewon Inn","Seoul","Yongsan-gu","Itaewon1-dong","9"
"BE_LiST20-0145","IS@K Guesthouse","Seoul","Yongsan-gu","Hannam-dong","2"
"BE_LiST20-0146","Itaewon G Guesthouse","Seoul","Yongsan-gu","Itaewon1-dong","3"
"BE_LiST20-0147","Noel's Guest House","Seoul","Yongsan-gu","Itaewon1-dong","4"
"BE_LiST20-0148","Tiger House","Seoul","Yongsan-gu","Hannam-dong","1"
"BE_LiST20-0149","SS Guesthouse","Seoul","Yongsan-gu","Cheongpa-dong","4"
"BE_LiST20-0150","Tommy System","Seoul","Yongsan-gu","Yongmun-dong","1"
"BE_LiST20-0151","CozyPlace Guesthouse in Itaewon","Seoul","Yongsan-gu","Itaewon1-dong","7"
"BE_LiST20-0152","24 Guesthouse Itaewon","Seoul","Yongsan-gu","Itaewon1-dong","8"
"BE_LiST20-0153","Nomad House Itaewon","Seoul","Yongsan-gu","Itaewon2-dong","3"
"BE_LiST20-0154","24 Guesthouse Seoul City Gonghang","Seoul","Yongsan-gu","Cheongpa-dong","8"
"BE_LiST20-0155","Social House","Seoul","Yongsan-gu","Itaewon1-dong","2"
"BE_LiST20-0156","Yacht","Seoul","Yongsan-gu","Itaewon1-dong","5"
"BE_LiST20-0157","LAON","Seoul","Yongsan-gu","Itaewon2-dong","2"
"BE_LiST20-0158","seoul corner guest house","Seoul","Yongsan-gu","Namyeong-dong","5"
"BE_LiST20-0159","G Guest Home","Seoul","Yongsan-gu","Itaewon1-dong","5"
"BE_LiST20-0160","KIM's house","Seoul","Yongsan-gu","Itaewon1-dong","1"
"BE_LiST20-0161","9 Road","Seoul","Yongsan-gu","Hannam-dong","1"
"BE_LiST20-0162","FUNFUN GUESTHOUSE","Seoul","Yongsan-gu","Seobinggo-dong","2"
"BE_LiST20-0163","Triple Guesthouse","Seoul","Yongsan-gu","Hannam-dong","1"
"BE_LiST20-0164","88 House Yongsan","Seoul","Yongsan-gu","Wonhyoro1-dong","1"
"BE_LiST20-0165","Cube Guesthouse","Seoul","Yongsan-gu","Itaewon1-dong","6"
"BE_LiST20-0166","TravelHolic Guesthouse","Seoul","Yongsan-gu","Itaewon1-dong","2"
"BE_LiST20-0167","eid guesthouse","Seoul","Yongsan-gu","Bogwang-dong","3"
"BE_LiST20-0168","Jeong Story","Seoul","Yongsan-gu","Cheongpa-dong","1"
"BE_LiST20-0169","Cozy House","Seoul","Yongsan-gu","Wonhyoro1-dong","2"
"BE_LiST20-0170","Photo Park","Seoul","Yongsan-gu","Yongsan2ga-dong","4"
"BE_LiST20-0171","Yong House","Seoul","Yongsan-gu","Ichon2-dong","1"
"BE_LiST20-0172","Eden Guest House","Seoul","Yongsan-gu","Itaewon2-dong","5"
"BE_LiST20-0173","Rosa Stay","Seoul","Yongsan-gu","Ichon2-dong","1"
"BE_LiST20-0174","Jiwoljang","Seoul","Yongsan-gu","Huam-dong","3"
"BE_LiST20-0175","Sowolgil","Seoul","Yongsan-gu","Yongsan2ga-dong","1"
"BE_LiST20-0176","Nova Palace","Seoul","Yongsan-gu","Huam-dong","3"
"BE_LiST20-0177","House of Itaewon","Seoul","Yongsan-gu","Itaewon1-dong","1"
"BE_LiST20-0178","Top guesthouse","Seoul","Yongsan-gu","Cheongpa-dong","2"
"BE_LiST20-0179","Yacht - 2","Seoul","Yongsan-gu","Itaewon1-dong","1"
"BE_LiST20-0180","Embassy Guesthouse","Seoul","Yongsan-gu","Hannam-dong","5"
"BE_LiST20-0181","JJ Guesthouse","Seoul","Yongsan-gu","Itaewon2-dong","3"
"BE_LiST20-0182","chic studio","Seoul","Yongsan-gu","Itaewon1-dong","1"
"BE_LiST20-0183","Jeong's family","Seoul","Yongsan-gu","Wonhyoro2-dong","2"
"BE_LiST20-0184","Korea Stay","Seoul","Seongdong-gu","Oksu-dong","1"
"BE_LiST20-0185","Home Stay","Seoul","Seongdong-gu","Majang-dong","1"
"BE_LiST20-0186","B&B 2ND FLOOR","Seoul","Seongdong-gu","Oksu-dong","2"
"BE_LiST20-0187","Stay Seoul","Seoul","Seongdong-gu","Sageun-dong","1"
"BE_LiST20-0188","twohyuns","Seoul","Seongdong-gu","Guemho1ga-dong","2"
"BE_LiST20-0189","Riverside Guesthouse","Seoul","Seongdong-gu","Seongsu2ga1-dong","2"
"BE_LiST20-0190","Haengdang Station Homestay","Seoul","Seongdong-gu","Haengdang2-dong","2"
"BE_LiST20-0191","Spacious Apartment in Central Seoul","Seoul","Seongdong-gu","Haengdang2-dong","2"
"BE_LiST20-0192","Emily Homestay","Seoul","Gwangjin-gu","Jayang3-dong","1"
"BE_LiST20-0193","Homestay Cafe Naru","Seoul","Gwangjin-gu","Gwangjang-dong","2"
"BE_LiST20-0194","Happy Day Familly","Seoul","Gwangjin-gu","Jayang3-dong","3"
"BE_LiST20-0195","Chinchin Stay","Seoul","Gwangjin-gu","Jayang3-dong","2"
"BE_LiST20-0196","Seoul Walkerhill Homestay Guesthouse","Seoul","Gwangjin-gu","Gwangjang-dong","1"
"BE_LiST20-0197","Michael Scott BNB","Seoul","Gwangjin-gu","Jayang2-dong","1"
"BE_LiST20-0198","Sura House","Seoul","Gwangjin-gu","Guui2-dong","2"
"BE_LiST20-0199","Segyeroganeun Na","Seoul","Dongdaemun-gu","Dapsimni2-dong","1"
"BE_LiST20-0200","Seoul Suite","Seoul","Dongdaemun-gu","Jangan2-dong","2"
"BE_LiST20-0201","Together","Seoul","Dongdaemun-gu","Jangan1-dong","1"
"BE_LiST20-0202","Korea Stay","Seoul","Dongdaemun-gu","Dapsimni1-dong","2"
"BE_LiST20-0203","Ko-Stay","Seoul","Dongdaemun-gu","Hwigyeong2-dong","1"
"BE_LiST20-0204","Citron Scent","Seoul","Dongdaemun-gu","Imun2-dong","2"
"BE_LiST20-0205","Lee's home","Seoul","Dongdaemun-gu","Cheongnyangni-dong","1"
"BE_LiST20-0206","INTO DREAM HOUSE","Seoul","Dongdaemun-gu","Jeonnong1-dong","1"
"BE_LiST20-0207","W Residence","Seoul","Dongdaemun-gu","Jeonnong1-dong","1"
"BE_LiST20-0208","UEDA HAKARU","Seoul","Dongdaemun-gu","Imun2-dong","2"
"BE_LiST20-0209","Han's House","Seoul","Dongdaemun-gu","Dapsimni2-dong","1"
"BE_LiST20-0210","Uhbu's","Seoul","Dongdaemun-gu","Yongsin-dong","3"
"BE_LiST20-0211","VERDI GUESTHOUSE","Seoul","Dongdaemun-gu","Hwigyeong1-dong","2"
"BE_LiST20-0212","B&B in Seoul","Seoul","Dongdaemun-gu","Dapsimni1-dong","1"
"BE_LiST20-0213","Jangan hills Home stay","Seoul","Dongdaemun-gu","Jangan2-dong","2"
"BE_LiST20-0214","Seven Stay","Seoul","Dongdaemun-gu","Jeonnong1-dong","2"
"BE_LiST20-0215","Geonyeong Homestay","Seoul","Jungnang-gu","Sinnae2-dong","2"
"BE_LiST20-0216","Sagajung?Homestay","Seoul","Jungnang-gu","Myeonmok3.8-dong","2"
"BE_LiST20-0217","Tree House","Seoul","Jungnang-gu","Sangbong1-dong","1"
"BE_LiST20-0218","Brownstone","Seoul","Seongbuk-gu","Donam1-dong","2"
"BE_LiST20-0219","Yam Guest House","Seoul","Seongbuk-gu","Dongseon-dong","2"
"BE_LiST20-0220","BJ Guest House","Seoul","Seongbuk-gu","Seongbuk-dong","1"
"BE_LiST20-0221","Duri Guesthouse","Seoul","Seongbuk-gu","Jongam-dong","5"
"BE_LiST20-0222","Dr john's guest house","Seoul","Seongbuk-gu","Donam2-dong","2"
"BE_LiST20-0223","Lilac","Seoul","Seongbuk-gu","Jongam-dong","1"
"BE_LiST20-0224","Casa Pepe","Seoul","Seongbuk-gu","Seongbuk-dong","2"
"BE_LiST20-0225","Dasom","Seoul","Seongbuk-gu","Samseon-dong","2"
"BE_LiST20-0226","Arirang","Seoul","Seongbuk-gu","Seongbuk-dong","1"
"BE_LiST20-0227","K-POP","Seoul","Seongbuk-gu","Gireum1-dong","1"
"BE_LiST20-0228","Star Class Guest House","Seoul","Seongbuk-gu","Wolgok2-dong","2"
"BE_LiST20-0229","SEOUL FAMILY HOUSE","Seoul","Seongbuk-gu","Donam1-dong","1"
"BE_LiST20-0230","K-WINGS","Seoul","Seongbuk-gu","Donam1-dong","2"
"BE_LiST20-0231","B&B HAO","Seoul","Seongbuk-gu","Jeongneung3-dong","3"
"BE_LiST20-0232","Woozoo House","Seoul","Seongbuk-gu","Samseon-dong","5"
"BE_LiST20-0233","YNNY HOUSE","Seoul","Seongbuk-gu","Samseon-dong","2"
"BE_LiST20-0234","Happy House","Seoul","Gangbuk-gu","Samgaksan-dong","1"
"BE_LiST20-0617","Sun City Guesthouse","Seoul","Gangnam-gu","Nonhyeon1-dong","3"
"BE_LiST20-0618","Cheongdam Guesthouse","Seoul","Gangnam-gu","Cheongdam-dong","5"
"BE_LiST20-0619","Big Johns Place ","Seoul","Gangnam-gu","Yeoksam1-dong","6"
"BE_LiST20-0620","Always Like Home","Seoul","Gangnam-gu","Nonhyeon1-dong","3"
"BE_LiST20-0621","Miseong Guesthouse","Seoul","Gangnam-gu","Sinsa-dong","1"
"BE_LiST20-0622","Peace Guesthouse","Seoul","Gangnam-gu","Sinsa-dong","3"
"BE_LiST20-0623","24 Guesthouse Garosugil","Seoul","Gangnam-gu","Sinsa-dong","14"
"BE_LiST20-0624","K Star Road","Seoul","Gangnam-gu","Cheongdam-dong","2"
"BE_LiST20-0625","Yukine","Seoul","Gangnam-gu","Yeoksam2-dong","2"
"BE_LiST20-0626","Happy House","Seoul","Gangnam-gu","Apgujeong-dong","2"
"BE_LiST20-0627","24 Guesthouse Gangnam Center","Seoul","Gangnam-gu","Yeoksam1-dong","8"
"BE_LiST20-0628","Pandago Guesthouse","Seoul","Gangnam-gu","Sinsa-dong","3"
"BE_LiST20-0629","Hellena Homestay","Seoul","Gangnam-gu","Daechi2-dong","2"
"BE_LiST20-0630","Denis's House","Seoul","Gangnam-gu","Samseong2-dong","2"
"BE_LiST20-0631","JG House","Seoul","Gangnam-gu","Sinsa-dong","1"
"BE_LiST20-0632","Youth Guesthouse","Seoul","Gangnam-gu","Nonhyeon2-dong","1"
"BE_LiST20-0633","Coex BnB House","Seoul","Gangnam-gu","Samseong1-dong","3"
"BE_LiST20-0634","ANI Guesthouse","Seoul","Gangnam-gu","Nonhyeon1-dong","2"
"BE_LiST20-0635","K Girl House?","Seoul","Gangnam-gu","Cheongdam-dong","2"
"BE_LiST20-0636","Sail Guest House","Seoul","Gangnam-gu","Yeoksam1-dong","5"
"BE_LiST20-0637","Genie's ","Seoul","Gangnam-gu","Yeoksam2-dong","1"
"BE_LiST20-0638","Haru","Seoul","Gangnam-gu","Yeoksam1-dong","2"
"BE_LiST20-0639","Jenna Suite","Seoul","Gangnam-gu","Sinsa-dong","6"
"BE_LiST20-0640","Mua Guesthouse","Seoul","Gangnam-gu","Cheongdam-dong","1"
"BE_LiST20-0641","Gangnam Stay Hill","Seoul","Gangnam-gu","Yeoksam1-dong","4"
"BE_LiST20-0642","Harry's House","Seoul","Gangnam-gu","Irwonbon-dong","3"
"BE_LiST20-0643","FN House","Seoul","Gangnam-gu","Apgujeong-dong","8"
"BE_LiST20-0644","Gold Hill Guesthouse","Seoul","Gangnam-gu","Nonhyeon1-dong","6"
"BE_LiST20-0645","Gangnam Breeze Hill Guesthouse","Seoul","Gangnam-gu","Segok-dong","2"
"BE_LiST20-0646","Garosugil Homestay","Seoul","Gangnam-gu","Sinsa-dong","1"
"BE_LiST20-0647","The Home Guesthouse","Seoul","Gangnam-gu","Samseong2-dong","2"
"BE_LiST20-0648","Artist's House","Seoul","Gangnam-gu","Cheongdam-dong","2"
"BE_LiST20-0649","Cozyroom in the Middle of Gangnam","Seoul","Gangnam-gu","Nonhyeon2-dong","3"
"BE_LiST20-0650","The Ja Coex","Seoul","Gangnam-gu","Daechi2-dong","4"
"BE_LiST20-0651","Kula","Seoul","Gangnam-gu","Cheongdam-dong","2"
"BE_LiST20-0652","Gangnam Guesthouse","Seoul","Gangnam-gu","Nonhyeon1-dong","4"
"BE_LiST20-0653","Queenville Guesthouse","Seoul","Gangnam-gu","Samseong1-dong","2"
"BE_LiST20-0654","Homestay Near Gangnam Coex","Seoul","Gangnam-gu","Samseong1-dong","1"
"BE_LiST20-0655","Melting Pot House","Seoul","Gangnam-gu","Sinsa-dong","4"
"BE_LiST20-0656","Yi Chan-gyu's Homestay for Foreigners","Seoul","Songpa-gu","Ogeum-dong","1"
"BE_LiST20-0657","RM Near Gangnam & Samsung Station","Seoul","Songpa-gu","Jamsil2-dong","2"
"BE_LiST20-0658","Lovely","Seoul","Songpa-gu","Jamsil2-dong","1"
"BE_LiST20-0659","Areumdaun Nara","Seoul","Songpa-gu","Munjeong2-dong","2"
"BE_LiST20-0660","Jiilinae","Seoul","Songpa-gu","Munjeong2-dong","1"
"BE_LiST20-0661","Tina`s Homestay","Seoul","Songpa-gu","Samjeon-dong","1"
"BE_LiST20-0662","Li Li Mom House","Seoul","Songpa-gu","Jamsil2-dong","1"
"BE_LiST20-0663","Groove City guest house","Seoul","Songpa-gu","Pungnap1-dong","2"
"BE_LiST20-0664","Yujeong Homestay","Seoul","Songpa-gu","Jamsil3-dong","2"
"BE_LiST20-0665","O Ga-yeong Homestay","Seoul","Songpa-gu","Garak2-dong","2"
"BE_LiST20-0666","Rainbow Homestay","Seoul","Songpa-gu","Jamsil3-dong","2"
"BE_LiST20-0667","Parkrio Homestay","Seoul","Songpa-gu","Jamsil4-dong","1"
"BE_LiST20-0668","Naru Homestay","Seoul","Songpa-gu","Jamsil4-dong","2"
"BE_LiST20-0669","Hosu Homestay","Seoul","Songpa-gu","Seokchon-dong","2"
"BE_LiST20-0670","Blueberry Homestay","Seoul","Songpa-gu","Bangi1-dong","2"
"BE_LiST20-0671","S. Park Homestay","Seoul","Songpa-gu","Garak2-dong","2"
"BE_LiST20-0672","Joon's Homestay","Seoul","Songpa-gu","Jamsil7-dong","1"
"BE_LiST20-0673","Cozy Homestay","Seoul","Songpa-gu","Jamsil4-dong","2"
"BE_LiST20-0674","Hangang Homestay","Seoul","Songpa-gu","Jamsil2-dong","1"
"BE_LiST20-0675","Kimberly Homestay","Seoul","Songpa-gu","Jamsil4-dong","2"
"BE_LiST20-0676","Jin Stay Songpa","Seoul","Songpa-gu","Samjeon-dong","11"
"BE_LiST20-0677","Sunshine Guesthouse","Seoul","Songpa-gu","Seokchon-dong","3"
"BE_LiST20-0678","Sean's Homestay","Seoul","Songpa-gu","Munjeong1-dong","2"
"BE_LiST20-0679","Top Homestay","Seoul","Songpa-gu","Bangi2-dong","2"
"BE_LiST20-0680","Kotti Homestay","Seoul","Songpa-gu","Songpa1-dong","2"
"BE_LiST20-0681","Wam family","Seoul","Songpa-gu","Jamsil7-dong","2"
"BE_LiST20-0682","Jin House","Seoul","Songpa-gu","Jamsil2-dong","1"
"BE_LiST20-0683","Lake Guesthouse","Seoul","Songpa-gu","Seokchon-dong","1"
"BE_LiST20-0684","Jamsil Myeongseong Homestay","Seoul","Songpa-gu","Bangi2-dong","1"
"BE_LiST20-0685","Hou Peng You House","Seoul","Songpa-gu","Songpa2-dong","2"
"BE_LiST20-0686","Lina's House","Seoul","Songpa-gu","Songpa2-dong","1"
"BE_LiST20-0687","Poet's House","Seoul","Songpa-gu","Songpa1-dong","2"
"BE_LiST20-0688","Jamsil Guesthouse","Seoul","Songpa-gu","Jamsil4-dong","3"
"BE_LiST20-0689","Jamsil Welcome House","Seoul","Songpa-gu","Pungnap2-dong","2"
"BE_LiST20-0690","Lotte Jamsil Guesthouse","Seoul","Songpa-gu","Jamsil6-dong","3"
"BE_LiST20-0691","Lake Palace Home","Seoul","Songpa-gu","Jamsil3-dong","2"
"BE_LiST20-0692","ON Guest House","Seoul","Songpa-gu","Jamsil7-dong","1"
"BE_LiST20-0693","Sunny House","Seoul","Songpa-gu","Geoyeo1-dong","1"
"BE_LiST20-0694","Mrs. Kim's Maeumi Meomuneun Sarangchae","Seoul","Songpa-gu","Jamsilbon-dong","2"
"BE_LiST20-0695","EKLIPS GUEST HOUSE","Seoul","Songpa-gu","Bangi2-dong",""
"BE_LiST20-0696","Space Hue","Seoul","Songpa-gu","Bangi1-dong","3"
"BE_LiST20-0697","Young House","Seoul","Gangdong-gu","Cheonho2-dong","1"
"BE_LiST20-0698","Kim's House","Seoul","Gangdong-gu","Amsa1-dong","2"
"BE_LiST20-0001","Backpackers INSIDE","Seoul","Jongno-gu","Hyehwa-dong","9"
"BE_LiST20-0002","GoldenPond GuestHouse","Seoul","Jongno-gu","Hyehwa-dong","18"
"BE_LiST20-0003","Bong House","Seoul","Jongno-gu","Hyehwa-dong","3"
"BE_LiST20-0004","Korea Central Backpackers","Seoul","Jongno-gu","Hyehwa-dong","6"
"BE_LiST20-0005","Jin House","Seoul","Jongno-gu","Sungin2-dong","3"
"BE_LiST20-0006","Inwangsan Guesthouse","Seoul","Jongno-gu","Muak-dong","1"
"BE_LiST20-0007","KYUNG BOK GUNG Guesthouse","Seoul","Jongno-gu","Cheongunhyoja-dong","3"
"BE_LiST20-0008","G. HOUSE","Seoul","Jongno-gu","Buam-dong","2"
"BE_LiST20-0009","Cindy's B&B","Seoul","Jongno-gu","Buam-dong","3"
"BE_LiST20-0010","C.U.BnB","Seoul","Jongno-gu","Ihwa-dong","3"
"BE_LiST20-0011","Minari House","Seoul","Jongno-gu","Ihwa-dong","3"
"BE_LiST20-0012","GIWA HOUSE","Seoul","Jongno-gu","Sajik-dong","3"
"BE_LiST20-0013","Y Guest House","Seoul","Jongno-gu","Gahoe-dong","2"
"BE_LiST20-0014","LI LI HOUSE","Seoul","Jongno-gu","Ihwa-dong","3"
"BE_LiST20-0015","Samcheongdong Korea Guest House","Seoul","Jongno-gu","Samcheong-dong","3"
"BE_LiST20-0016","AHA HOUSE","Seoul","Jongno-gu","Pyeongchang-dong","2"
"BE_LiST20-0017","Nuit Guesthouse","Seoul","Jongno-gu","Cheongunhyoja-dong","1"
"BE_LiST20-0018","Casa Jamila","Seoul","Jongno-gu","Sajik-dong","2"
"BE_LiST20-0019","Seochon B&B SRAN","Seoul","Jongno-gu","Cheongunhyoja-dong","2"
"BE_LiST20-0020","Premium Guesthouse","Seoul","Jongno-gu","Cheongunhyoja-dong","9"
"BE_LiST20-0021","A☆House","Seoul","Jongno-gu","Samcheong-dong","4"
"BE_LiST20-0451","Kam Guesthouse","Seoul","Mapo-gu","Seongsan2-dong","1"
"BE_LiST20-0452","Camping Guesthouse","Seoul","Mapo-gu","Sangam-dong","11"
"BE_LiST20-0453","Kkami House","Seoul","Mapo-gu","Mangwon1-dong","2"
"BE_LiST20-0454","Br. house","Seoul","Mapo-gu","Seogyo-dong","5"
"BE_LiST20-0455","Guesthouse Firefly","Seoul","Mapo-gu","Yeonnam-dong","2"
"BE_LiST20-0456","Gamja Guesthouse","Seoul","Mapo-gu","Yeonnam-dong","2"
"BE_LiST20-0457","LaiLai House","Seoul","Mapo-gu","Seogyo-dong","1"
"BE_LiST20-0458","Seoul Mansion 2","Seoul","Mapo-gu","Seogyo-dong","9"
"BE_LiST20-0459","Doors Guesthouse","Seoul","Mapo-gu","Seogyo-dong","2"
"BE_LiST20-0460","Ho Hometel","Seoul","Mapo-gu","Seogyo-dong","2"
"BE_LiST20-0461","Inn Guesthouse 2","Seoul","Mapo-gu","Yeonnam-dong","6"
"BE_LiST20-0462","Seoulian","Seoul","Mapo-gu","Yeonnam-dong","1"
"BE_LiST20-0463","Jun Guesthouse","Seoul","Mapo-gu","Seogyo-dong","3"
"BE_LiST20-0464","Trick Art Guest House","Seoul","Mapo-gu","Yeonnam-dong","6"
"BE_LiST20-0465","Rabbit Guesthouse","Seoul","Mapo-gu","Seogyo-dong","5"
"BE_LiST20-0466","Leo Guesthouse Hongdaeipguyeok 2","Seoul","Mapo-gu","Seogyo-dong","4"
"BE_LiST20-0467","Sunny's house","Seoul","Mapo-gu","Hapjeong-dong","3"
"BE_LiST20-0468","Sunny's East house","Seoul","Mapo-gu","Yeonnam-dong","2"
"BE_LiST20-0469","Laundry People","Seoul","Mapo-gu","Dohwa-dong","2"
"BE_LiST20-0470","Stay Now","Seoul","Mapo-gu","Yeonnam-dong","7"
"BE_LiST20-0471","Hongdae House","Seoul","Mapo-gu","Seogang-dong","2"
"BE_LiST20-0472","10 Guesthouse","Seoul","Mapo-gu","Dohwa-dong","3"
"BE_LiST20-0473","Maru Guesthouse","Seoul","Mapo-gu","Seogyo-dong","3"
"BE_LiST20-0474","007 Guesthouse 1","Seoul","Mapo-gu","Yeonnam-dong","3"
"BE_LiST20-0475","007 Guesthouse 2","Seoul","Mapo-gu","Yeonnam-dong","2"
"BE_LiST20-0476","Joko Guesthouse","Seoul","Mapo-gu","Seongsan1-dong","4"
"BE_LiST20-0477","LikeU","Seoul","Mapo-gu","Seogyo-dong","3"
"BE_LiST20-0478","Grape Garden House","Seoul","Mapo-gu","Seogyo-dong","7"
"BE_LiST20-0479","Housetay 2","Seoul","Mapo-gu","Seogyo-dong","9"
"BE_LiST20-0480","Seoul Kukyong Guesthosue","Seoul","Mapo-gu","Seogyo-dong","5"
"BE_LiST20-0481","Elena's House","Seoul","Mapo-gu","Yeonnam-dong","3"
"BE_LiST20-0482","The win art house","Seoul","Mapo-gu","Seogyo-dong","1"
"BE_LiST20-0483","Baro Ato ","Seoul","Mapo-gu","Seogyo-dong","11"
"BE_LiST20-0484","J&J","Seoul","Mapo-gu","Seogyo-dong","2"
"BE_LiST20-0485","K plus Y","Seoul","Mapo-gu","Seogyo-dong","1"
"BE_LiST20-0486","Hongdae 3 room house","Seoul","Mapo-gu","Seogyo-dong","2"
"BE_LiST20-0487","Lian Guesthouse","Seoul","Mapo-gu","Seogyo-dong","5"
"BE_LiST20-0488","Egao Guesthouse","Seoul","Mapo-gu","Yeonnam-dong","8"
"BE_LiST20-0489","Miso Guesthouse 2","Seoul","Mapo-gu","Seogyo-dong","1"
"BE_LiST20-0490","Nanu Guesthouse Pink","Seoul","Mapo-gu","Seogyo-dong","2"
"BE_LiST20-0491","Ewha Guesthouse","Seoul","Mapo-gu","Seogyo-dong","2"
"BE_LiST20-0492","Godeokjeong","Seoul","Mapo-gu","Dohwa-dong","3"
"BE_LiST20-0493","Alice Guesthouse","Seoul","Mapo-gu","Seogang-dong","3"
"BE_LiST20-0494","JS Home","Seoul","Mapo-gu","Seogyo-dong","1"
"BE_LiST20-0495","Naeditgo","Seoul","Mapo-gu","Mangwon1-dong","1"
"BE_LiST20-0496","Super 7","Seoul","Mapo-gu","Yeonnam-dong","2"
"BE_LiST20-0497","Housetay","Seoul","Mapo-gu","Seogyo-dong","3"
"BE_LiST20-0498","A Little Nap 2","Seoul","Mapo-gu","Seogyo-dong","2"
"BE_LiST20-0499","Woo and Woo?House","Seoul","Mapo-gu","Hapjeong-dong","2"
"BE_LiST20-0500","Seongrin","Seoul","Mapo-gu","Seogyo-dong","2"
"BE_LiST20-0501","B house","Seoul","Mapo-gu","Yeonnam-dong","5"
"BE_LiST20-0502","LEE & NO Guesthous","Seoul","Mapo-gu","Yeonnam-dong","1"
"BE_LiST20-0503","LEE & NO Guesthous","Seoul","Mapo-gu","Yeonnam-dong","1"
"BE_LiST20-0504","Inn Daewon","Seoul","Yangcheon-gu","Mok1-dong","1"
"BE_LiST20-0505","Mokdong House","Seoul","Yangcheon-gu","Mok5-dong","1"
"BE_LiST20-0506","Hyundai Hyperion","Seoul","Yangcheon-gu","Mok1-dong","1"
"BE_LiST20-0507","The Cosy House","Seoul","Yangcheon-gu","Mok5-dong","1"
"BE_LiST20-0508","Jay's House","Seoul","Yangcheon-gu","Mok3-dong","1"
"BE_LiST20-0340","Bridge Backpackers","Seoul","Mapo-gu","Seogyo-dong","2"
"BE_LiST20-0341","Mamas & Papas?Hongdae Hostel","Seoul","Mapo-gu","Seogyo-dong","5"
"BE_LiST20-0342","24 Guesthouse Hongdae","Seoul","Mapo-gu","Yeonnam-dong","6"
"BE_LiST20-0343","V Mansion ","Seoul","Mapo-gu","Seogang-dong","5"
"BE_LiST20-0344","Geranium","Seoul","Mapo-gu","Seogyo-dong","3"
"BE_LiST20-0345","Town Guesthouse","Seoul","Mapo-gu","Gongdeok-dong","3"
"BE_LiST20-0346","Cookie Guesthouse","Seoul","Mapo-gu","Yeonnam-dong","2"
"BE_LiST20-0347","SISNBRO","Seoul","Mapo-gu","Yeonnam-dong","7"
"BE_LiST20-0348","Arthouse?","Seoul","Mapo-gu","Yeonnam-dong","1"
"BE_LiST20-0349","Hongstay Guesthouse","Seoul","Mapo-gu","Seogyo-dong","4"
"BE_LiST20-0350","Traveler Planet","Seoul","Mapo-gu","Yeonnam-dong","4"
"BE_LiST20-0351","DH Guesthouse","Seoul","Mapo-gu","Daheung-dong","2"
"BE_LiST20-0352","Skycycle Guesthouse","Seoul","Mapo-gu","Daheung-dong","3"
"BE_LiST20-0353","Local Stitch","Seoul","Mapo-gu","Seogyo-dong","3"
"BE_LiST20-0354","Uwa Guesthouse","Seoul","Mapo-gu","Seogyo-dong","5"
"BE_LiST20-0355","HaTo","Seoul","Mapo-gu","Yeonnam-dong","5"
"BE_LiST20-0356","RO&JO HOUSE","Seoul","Mapo-gu","Yeonnam-dong","4"
"BE_LiST20-0357","Nanu Guesthouse","Seoul","Mapo-gu","Seogyo-dong","3"
"BE_LiST20-0358","AVO","Seoul","Mapo-gu","Seogyo-dong","7"
"BE_LiST20-0359","G.O.D Guesthouse","Seoul","Mapo-gu","Seongsan1-dong","8"
"BE_LiST20-0360","Happy tree guesthouse","Seoul","Mapo-gu","Seogyo-dong","3"
"BE_LiST20-0361","Patio 59 ","Seoul","Mapo-gu","Seogyo-dong","4"
"BE_LiST20-0362","Seoul i Guesthouse","Seoul","Mapo-gu","Seogyo-dong","10"
"BE_LiST20-0363","Wonnie's Guesthouse","Seoul","Mapo-gu","Yeonnam-dong","5"
"BE_LiST20-0364","UJA Guesthouse","Seoul","Mapo-gu","Seogyo-dong","4"
"BE_LiST20-0365","Madam Moon Guesthouse","Seoul","Mapo-gu","Seogyo-dong","3"
"BE_LiST20-0366","Dream Comfort","Seoul","Mapo-gu","Seogyo-dong","6"
"BE_LiST20-0367","Urbanwood Guesthouse","Seoul","Mapo-gu","Seogyo-dong","3"
"BE_LiST20-0368","Sweet Home","Seoul","Mapo-gu","Seogyo-dong","3"
"BE_LiST20-0369","Hongdae Leo Guesthouse","Seoul","Mapo-gu","Seogyo-dong","11"
"BE_LiST20-0370","zzzip Guesthouse","Seoul","Mapo-gu","Seogyo-dong","3"
"BE_LiST20-0371","Seoul Mansion ","Seoul","Mapo-gu","Seogyo-dong","13"
"BE_LiST20-0372","BLU Guesthouse Hong Dae","Seoul","Mapo-gu","Seogyo-dong","4"
"BE_LiST20-0373","B Guesthouse","Seoul","Mapo-gu","Seogyo-dong","7"
"BE_LiST20-0374","Pumpkin Guesthouse","Seoul","Mapo-gu","Seogyo-dong","7"
"BE_LiST20-0375","Chingu Guesthouse","Seoul","Mapo-gu","Seogyo-dong","3"
"BE_LiST20-0376","Bounce Guesthouse","Seoul","Mapo-gu","Yeonnam-dong","3"
"BE_LiST20-0377","DW Design Residence","Seoul","Mapo-gu","Seogyo-dong","3"
"BE_LiST20-0378","Orange Guesthouse","Seoul","Mapo-gu","Seogyo-dong","8"
"BE_LiST20-0379","88 Housetel","Seoul","Mapo-gu","Seogyo-dong","4"
"BE_LiST20-0380","iHouse ChinChin","Seoul","Mapo-gu","Yeonnam-dong","4"
"BE_LiST20-0381","Gold Guesthouse","Seoul","Mapo-gu","Seogyo-dong","5"
"BE_LiST20-0382","Hangang Guesthouse","Seoul","Mapo-gu","Yonggang-dong","1"
"BE_LiST20-0383","BauHouse","Seoul","Mapo-gu","Yeonnam-dong","4"
"BE_LiST20-0384","Loft 8","Seoul","Mapo-gu","Seogyo-dong","5"
"BE_LiST20-0385","Park Avenue Guesthouse","Seoul","Mapo-gu","Yeonnam-dong","4"
"BE_LiST20-0386","Ten Dollar","Seoul","Mapo-gu","Seogyo-dong","5"
"BE_LiST20-0387","Woori Seoul Guest House","Seoul","Mapo-gu","Yeonnam-dong","6"
"BE_LiST20-0388","Park Avenue 2","Seoul","Mapo-gu","Yeonnam-dong","6"
"BE_LiST20-0389","?Kdoob9 Guesthouse","Seoul","Mapo-gu","Yeonnam-dong","5"
"BE_LiST20-0390","Campfire Guesthouse?","Seoul","Mapo-gu","Yeonnam-dong","2"
"BE_LiST20-0391","Hola Seoul Guesthouse","Seoul","Mapo-gu","Yeonnam-dong","3"
"BE_LiST20-0392","This is ","Seoul","Mapo-gu","Yeonnam-dong","4"
"BE_LiST20-0393","Neutjam Guesthouse","Seoul","Mapo-gu","Hapjeong-dong","3"
"BE_LiST20-0394","Cocoon stay","Seoul","Mapo-gu","Seogyo-dong","9"
"BE_LiST20-0395","SJ","Seoul","Mapo-gu","Sinsu-dong","2"
"BE_LiST20-0396","OH House","Seoul","Mapo-gu","Yeonnam-dong","2"
"BE_LiST20-0397","Sleeping Strawberry Guesthouse","Seoul","Mapo-gu","Seogyo-dong","2"
"BE_LiST20-0398","Serendipity ; Seagull's Nest ","Seoul","Mapo-gu","Seogyo-dong","3"
"BE_LiST20-0399","The ONE","Seoul","Mapo-gu","Seogyo-dong","5"
"BE_LiST20-0400","Family and Friends House 2","Seoul","Mapo-gu","Yeonnam-dong","3"
"BE_LiST20-0401","DY House","Seoul","Mapo-gu","Seogyo-dong","2"
"BE_LiST20-0402","AtHome","Seoul","Mapo-gu","Seogyo-dong","2"
"BE_LiST20-0403","Able Guesthouse","Seoul","Mapo-gu","Seogyo-dong","10"
"BE_LiST20-0404","LEE GANG Guesthouse","Seoul","Mapo-gu","Seongsan1-dong","4"
"BE_LiST20-0405","Honey House","Seoul","Mapo-gu","Seogyo-dong","6"
"BE_LiST20-0406","Hongdae Olive Guesthouse","Seoul","Mapo-gu","Seogyo-dong","5"
"BE_LiST20-0407","Inno Hostel?","Seoul","Mapo-gu","Seogyo-dong","4"
"BE_LiST20-0408","Ashley House","Seoul","Mapo-gu","Seogyo-dong","2"
"BE_LiST20-0409","Chachacha House","Seoul","Mapo-gu","Hapjeong-dong","1"
"BE_LiST20-0410","The Haemil","Seoul","Mapo-gu","Yeonnam-dong","1"
"BE_LiST20-0411","AL BERGUE","Seoul","Mapo-gu","Yeonnam-dong","1"
"BE_LiST20-0412","Burningheart","Seoul","Mapo-gu","Seogyo-dong","2"
"BE_LiST20-0413","Hongsi Guesthouse","Seoul","Mapo-gu","Seogyo-dong","2"
"BE_LiST20-0414","Vin Guest House","Seoul","Mapo-gu","Seogang-dong","3"
"BE_LiST20-0415","AGAIN","Seoul","Mapo-gu","Seogyo-dong","1"
"BE_LiST20-0416","Ann guesthouse","Seoul","Mapo-gu","Seogyo-dong","6"
"BE_LiST20-0417","choibnb","Seoul","Mapo-gu","Seogyo-dong","1"
"BE_LiST20-0418","Apple tree","Seoul","Mapo-gu","Seongsan1-dong","3"
"BE_LiST20-0419","Gateway Korea Guesthouse","Seoul","Mapo-gu","Seogyo-dong","3"
"BE_LiST20-0420","Homini","Seoul","Mapo-gu","Seogyo-dong","3"
"BE_LiST20-0421","guesthouse kw hongdae Line","Seoul","Mapo-gu","Yeonnam-dong","1"
"BE_LiST20-0422","Miss Egg House","Seoul","Mapo-gu","Daheung-dong","2"
"BE_LiST20-0423","Nanu Guesthouse 3","Seoul","Mapo-gu","Seogyo-dong","1"
"BE_LiST20-0424","Ubreaktime","Seoul","Mapo-gu","Seogyo-dong","6"
"BE_LiST20-0425","Happytree Guesthouse 2","Seoul","Mapo-gu","Seogyo-dong","2"
"BE_LiST20-0426","Daon House","Seoul","Mapo-gu","Seogyo-dong","2"
"BE_LiST20-0427","I Love Hongdae","Seoul","Mapo-gu","Hapjeong-dong","2"
"BE_LiST20-0428","Yooginong Guesthouse","Seoul","Mapo-gu","Mangwon1-dong","21"
"BE_LiST20-0429","Hi Jun Guesthouse","Seoul","Mapo-gu","Yeonnam-dong","2"
"BE_LiST20-0430","Joy Guesthouse","Seoul","Mapo-gu","Seongsan1-dong","1"
"BE_LiST20-0431","Sweet Comfort","Seoul","Mapo-gu","Yeonnam-dong","3"
"BE_LiST20-0432","Lombard House","Seoul","Mapo-gu","Seogyo-dong","6"
"BE_LiST20-0433","Hao Guesthouse","Seoul","Mapo-gu","Seogyo-dong","6"
"BE_LiST20-0434","A Little Nap","Seoul","Mapo-gu","Seogyo-dong","2"
"BE_LiST20-0435","Egg Guesthouse Pick Me Up Korea","Seoul","Mapo-gu","Seogyo-dong","4"
"BE_LiST20-0436","Miso Guesthouse","Seoul","Mapo-gu","Seogyo-dong","2"
"BE_LiST20-0437","Lazy Fox ","Seoul","Mapo-gu","Seogyo-dong","2"
"BE_LiST20-0438","Park Mama Guesthouse","Seoul","Mapo-gu","Seogyo-dong","2"
"BE_LiST20-0439","Hot Space","Seoul","Mapo-gu","Seogyo-dong","3"
"BE_LiST20-0440","Hongdae Chef Guesthouse","Seoul","Mapo-gu","Hapjeong-dong","3"
"BE_LiST20-0441","Two Two House","Seoul","Mapo-gu","Yeonnam-dong","3"
"BE_LiST20-0442","Min's House","Seoul","Mapo-gu","Mangwon2-dong","2"
"BE_LiST20-0443","K Guesthouse","Seoul","Mapo-gu","Seogang-dong","1"
"BE_LiST20-0444","Jeongstay ","Seoul","Mapo-gu","Seogyo-dong","2"
"BE_LiST20-0445","1970 Guesthouse","Seoul","Mapo-gu","Yeonnam-dong","6"
"BE_LiST20-0446","Mono House","Seoul","Mapo-gu","Seogyo-dong","8"
"BE_LiST20-0447","88 House Hongdae","Seoul","Mapo-gu","Seogyo-dong","2"
"BE_LiST20-0448","Seoul Sweet STyle","Seoul","Mapo-gu","Yeonnam-dong","4"
"BE_LiST20-0449","House In Seoul","Seoul","Mapo-gu","Seogyo-dong","2"
"BE_LiST20-0450","Triangel Guesthouse ","Seoul","Mapo-gu","Seogyo-dong","3"